\relax 
\@writefile{toc}{\contentsline {section}{\numberline {1}Abstract}{1}\protected@file@percent }
\@writefile{toc}{\contentsline {section}{\numberline {2}Introduction}{1}\protected@file@percent }
\@writefile{toc}{\contentsline {section}{\numberline {3}Procedure}{1}\protected@file@percent }
\@writefile{toc}{\contentsline {subsection}{\numberline {3.1}Process}{1}\protected@file@percent }
\@writefile{toc}{\contentsline {subsection}{\numberline {3.2}Tools}{2}\protected@file@percent }
\@writefile{toc}{\contentsline {section}{\numberline {4}Data}{2}\protected@file@percent }
\@writefile{toc}{\contentsline {subsection}{\numberline {4.1}Values and functions}{2}\protected@file@percent }
\@writefile{toc}{\contentsline {subsection}{\numberline {4.2}Datapoints and Plots}{2}\protected@file@percent }
\@writefile{toc}{\contentsline {subsection}{\numberline {4.3}Battery Discharge Model}{2}\protected@file@percent }
\@writefile{toc}{\contentsline {subsection}{\numberline {4.4}Linear Best fit models}{3}\protected@file@percent }
\@writefile{toc}{\contentsline {subsection}{\numberline {4.5}Exponential Best fit models}{3}\protected@file@percent }
\@writefile{toc}{\contentsline {subsection}{\numberline {4.6}Model Analysis}{3}\protected@file@percent }
\@writefile{toc}{\contentsline {subsection}{\numberline {4.7}$R^2$}{5}\protected@file@percent }
\@writefile{toc}{\contentsline {section}{\numberline {5}Discussion}{5}\protected@file@percent }
